Word Library Development for Fixed and Growth Mindsets
…
# growth
growthWords <- tidy_mindset_unigrams %>% filter(inferredMindset == "growth") %>%
  count(word, sort = TRUE) 

# mixed
mixedWords <- tidy_mindset_unigrams %>% filter(inferredMindset == "mixed") %>%
  count(word, sort = TRUE) 

anti_join(fixedWords,growthWords) # fixed words with no match in growth

## Joining, by = c("word", "n")

## # A tibble: 1,570 x 2
##    word      n
##    <chr> <int>
##  1 i       558
##  2 and     544
##  3 to      472
##  4 a       285
##  5 they    273
##  6 of      270
##  7 in      250
##  8 is      218
##  9 the     214
## 10 my      183
## # ... with 1,560 more rows

anti_join(growthWords, fixedWords) # growth words with no match in fixed

## Joining, by = c("word", "n")

## # A tibble: 1,720 x 2
##    word      n
##    <chr> <int>
##  1 i      1213
##  2 to      727
##  3 and     653
##  4 my      438
##  5 of      394
##  6 the     368
##  7 a       335
##  8 that    326
##  9 in      304
## 10 think   272
## # ... with 1,710 more rows
…
# # new bigram counts:
# bigram_counts <- bigrams_filtered %>% 
#   count(word1, word2, sort = TRUE) #so this counts them both? that's not what I would expect
# 
# bigram_counts

bigrams_united <- bigrams_filtered %>%
  unite(bigram, word1, word2, sep = " ")
  #count(bigram, sort = TRUE)

bigrams_united

## # A tibble: 4,528 x 5
##    researchID inferredMindset promptType        TOI bigram                 
##    <chr>      <fct>           <chr>           <dbl> <chr>                  
##  1 1          growth          describeSomeone   4   demonstrate flexibility
##  2 1          growth          describeSomeone   4   readily respond        
##  3 1          growth          describeSomeone   4   unexpected situations  
##  4 1          growth          describeSomeone   4   easily adapt           
##  5 1          growth          describeSomeone   4   social context         
##  6 1          growth          describeSomeone   4   social intelligence    
##  7 1          growth          describeSomeone   4   compromising personal  
##  8 1          growth          describeSomeone   4   personal values        
##  9 10         not sure        describeSomeone   5.5 deep understanding     
## 10 10         not sure        describeSomeone   5.5 field abstract         
## # ... with 4,518 more rows
…
# fixed
temp1 <- tidy_mindset_bigrams %>%
  filter(inferredMindset == "fixed") %>%
  count(bigram, sort = TRUE)

# growth
temp2 <- tidy_mindset_bigrams %>%
  filter(inferredMindset == "growth") %>%
  count(bigram, sort = TRUE)

anti_join(temp1, temp2) # fixed words only

## Joining, by = c("bigram", "n")

## # A tibble: 859 x 2
##    bigram                 n
##    <chr>              <int>
##  1 na na                 31
##  2 book smart            14
##  3 common sense          10
##  4 difficult concepts     7
##  5 concepts quickly       6
##  6 retain information     6
##  7 albert einstein        5
##  8 fast learner           5
##  9 street smart           5
## 10 average person         4
## # ... with 849 more rows

anti_join(temp2, temp1) # growth words only

## Joining, by = c("bigram", "n")

## # A tibble: 817 x 2
##    bigram                      n
##    <chr>                   <int>
##  1 na na                     107
##  2 emotional intelligence      9
##  3 intelligent person          9
##  4 hard worker                 8
##  5 extremely hard              6
##  6 parents raised              6
##  7 academic success            5
##  8 book smart                  4
##  9 considered intelligent      4
## 10 emotionally intelligent     4
## # ... with 807 more rows
…
data(stop_words)

tidy_mindset_trigrams <- data_df %>%
  unnest_tokens(trigram, #what to call the resulting tokenized column
                description, #what to tokenize (input)
                token = "ngrams", # how to break up the words
                n = 3)

## Warning: Factor `inferredMindset` contains implicit NA, consider using
## `forcats::fct_explicit_na`

tidy_mindset_trigrams  %>%
  count(trigram, sort = TRUE)

## # A tibble: 40,076 x 2
##    trigram                   n
##    <chr>                 <int>
##  1 <NA>                    462
##  2 of myself as            147
##  3 think of myself         144
##  4 i think i               127
##  5 myself as intelligent   120
##  6 i think that            117
##  7 that i am               110
##  8 i am intelligent        109
##  9 a lot of                108
## 10 level of intelligence   104
## # ... with 40,066 more rows
…
